-64 -64 -64 -64 64 -64 560
-320 -320 336
992
-64 -64 136 -64 -64 560
-120 -120 -168 -168 -168 -168 32
992
992
-96 888
544 -128 -136 160
472 -112 -104 -96 -88 80
992
-160 -8 -8 792
-400 -400 -80 -8 -8 -8 -8 -8 8
-80 -80 816
-320 -320 -8 320
-48 232 -104 -400 176
176 -184 616
8 -8 368 -200 376
-400 -400 -8 160
992
