992
32 -8 24 -32 -8 848
992
992
-24 48 -32 864
344 -8 -24 592
-24 -192 -32 -8 704
-24 -32 -32 -8 864
-64 -64 -64 776
-24 216 -32 -8 -8 -24 632
72 -8 128 -24 -104 -48 -56 496
256 -24 -16 -96 -16 544
-32 40 -72 -16 -16 776
-16 -8 952
992
-24 -32 -168 -32 704
992
992
168 -40 768
512 -96 368
